{
  "data": [
    {
      "id": 1856,
      "studentId": 3011,
      "assessmentId": 67,
      "loginTime": "2025-03-13T20:41:33.172Z",
      "startTime": "2024-12-21T04:24:46.684Z",
      "questionsSync": 3,
      "timeElapsed": 1800,
      "status": "IN_PROGRESS",
      "sessionHealth": "POOR",
      "createdAt": "2025-06-26T20:06:52.103Z",
      "updatedAt": "2025-06-26T20:06:52.103Z",
      "student": {
        "id": 3011,
        "username": "lenna.hickle3",
        "fullName": "بوهاها اروي",
        "email": "Leonel_Bergstrom@yahoo.com",
        "groupId": 84,
        "createdAt": "2025-06-26T20:06:28.936Z"
      },
      "assessment": {
        "id": 67,
        "name": "اختبار رقم 2",
        "startDate": "2025-04-21T13:30:15.055Z",
        "endDate": "2025-10-04T08:54:17.271Z",
        "status": "FINISHED",
        "areaId": 42,
        "courseId": 122,
        "createdAt": "2025-06-26T20:06:48.334Z",
        "updatedAt": "2025-06-26T20:06:48.334Z",
        "area": {
          "id": 42,
          "name": "كلية رقم 2",
          "createdAt": "2025-06-26T20:06:25.807Z"
        }
      }
    }
  ],
  "filters": {
    "statuses": [
      "ABSENT",
      "PENDING",
      "MOVED_TO_PAPER",
      "IN_PROGRESS",
      "BLOCKED",
      "DENIED",
      "STUDENT_SUBMISSION",
      "TIMER_SUBMISSION"
    ],
    "sessionHealths": ["GOOD", "POOR", "DISCONNECTED"],
    "assessments": [
      {
        "id": 66,
        "name": "اختبار رقم 1"
      }
    ],
    "areas": [
      {
        "id": 41,
        "name": "كلية رقم 1"
      }
    ],
    "students": [
      {
        "id": 3008,
        "fullName": "الكراي براءة"
      }
    ]
  },
  "pagination": {
    "page": 1,
    "limit": 10,
    "total": 56,
    "totalPages": 6
  }
}
